<svg width="40" height="40" viewBox="0 0 40 40" fill="none" xmlns="http://www.w3.org/2000/svg">
<g clip-path="url(#clip0)">
<path d="M28.6022 0.222412H10.616C4.76224 0.222412 0 5.02413 0 10.9264V29.062C0 34.9639 4.76224 39.7657 10.616 39.7657H28.6025C34.4559 39.7657 39.2182 34.9639 39.2182 29.062V10.9264C39.2182 5.02413 34.4559 0.222412 28.6022 0.222412V0.222412ZM19.6091 30.8063C13.6961 30.8063 8.88566 25.956 8.88566 19.994C8.88566 14.032 13.6961 9.18173 19.6091 9.18173C25.5221 9.18173 30.3325 14.032 30.3325 19.994C30.3325 25.956 25.5221 30.8063 19.6091 30.8063ZM30.5889 11.7316C28.8415 11.7316 27.4203 10.2986 27.4203 8.53671C27.4203 6.77484 28.8415 5.3415 30.5889 5.3415C32.3363 5.3415 33.7579 6.77484 33.7579 8.53671C33.7579 10.2986 32.3363 11.7316 30.5889 11.7316Z" />
<path d="M19.6091 11.5C14.9641 11.5 11.1848 15.3104 11.1848 19.9941C11.1848 24.6776 14.9641 28.4882 19.6091 28.4882C24.2543 28.4882 28.0334 24.6776 28.0334 19.9941C28.0334 15.3104 24.2543 11.5 19.6091 11.5Z" />
<path d="M30.5889 7.65991C30.1095 7.65991 29.7194 8.05332 29.7194 8.53663C29.7194 9.01994 30.1095 9.41334 30.5889 9.41334C31.0685 9.41334 31.4587 9.02024 31.4587 8.53663C31.4587 8.05302 31.0685 7.65991 30.5889 7.65991Z" />
</g>
<defs>
<clipPath id="clip0">
<rect y="0.222412" width="39.2182" height="39.5433" />
</clipPath>
</defs>
</svg>
