<svg width="27" height="26" viewBox="0 0 27 26" fill="none" xmlns="http://www.w3.org/2000/svg">
<path d="M22.0589 4.6521H4.41181C3.19858 4.6521 2.21696 5.5725 2.21696 6.69744L2.20593 18.9695C2.20593 20.0944 3.19858 21.0149 4.41181 21.0149H22.0589C23.2721 21.0149 24.2647 20.0944 24.2647 18.9695V6.69744C24.2647 5.5725 23.2721 4.6521 22.0589 4.6521ZM22.0589 18.9695H4.41181V8.74279L13.2353 13.8561L22.0589 8.74279V18.9695ZM13.2353 11.8108L4.41181 6.69744H22.0589L13.2353 11.8108Z" fill="white"/>
</svg>
