<svg width="40" height="40" viewBox="0 0 40 40" xmlns="http://www.w3.org/2000/svg">
<g fill="#355070"><rect x="0" y="0" width="40" height="40" /></g>
<g fill="white" clip-path="url(#clip0)">
<path d="M1.34067 27.7333C2.10534 27.7333 2.95534 26.976 3.72867 26.286C4.15294 25.8549 4.63864 25.489 5.17 25.2C5.23744 25.1825 5.30607 25.17 5.37534 25.1627C5.24665 26.8898 5.4892 28.6244 6.08667 30.25C5.20534 31.3947 4.06667 33.292 4.51667 35.0087C4.57788 35.2408 4.75919 35.4221 4.99134 35.4833C5.25734 35.5525 5.53116 35.587 5.806 35.586C7.28667 35.586 8.78734 34.6527 9.752 33.9113C11.1122 34.425 12.5577 34.675 14.0113 34.648C14.282 34.648 14.558 34.6367 14.8347 34.6233C14.8274 34.6938 14.8147 34.7635 14.7967 34.832C14.5077 35.3629 14.1417 35.8482 13.7107 36.272C12.764 37.3347 11.6893 38.5387 12.624 39.472C13.1277 39.8667 13.7625 40.0554 14.4 40C14.985 39.9909 15.5676 39.9223 16.1387 39.7953C17.5483 39.5392 18.863 38.9083 19.9447 37.9687C20.7733 37.14 21.1447 35.5847 21.07 33.358C24.2788 32.303 27.2164 30.5553 29.6747 28.2387C30.0593 27.854 30.4007 27.4647 30.7207 27.074C30.8385 27.1603 30.9242 27.2835 30.964 27.424C31.0831 28.2573 30.7758 29.0948 30.146 29.6533C28.3373 31.462 27.31 34.0633 27.8073 35.5793C27.9152 35.9866 28.2347 36.3038 28.6427 36.4087C28.7287 36.4293 28.8169 36.4396 28.9053 36.4393C29.9587 36.4393 31.3647 35.034 34.6853 31.7133C38.7353 27.6633 36.4027 22.7133 34.638 20.9467C34.2058 20.4787 33.6435 20.1509 33.0233 20.0053C32.746 18.1731 32.0339 16.4339 30.9467 14.9333C32.056 14.3727 33.28 13.7273 33.67 12.526C33.9973 11.506 34.9507 8.05933 33.4453 6.55667C31.94 5.054 28.496 6 27.476 6.33C26.276 6.71733 25.6293 7.94333 25.0687 9.05333C23.5658 7.96422 21.8234 7.25182 19.988 6.976C19.845 6.35689 19.5199 5.79477 19.0547 5.362C17.2887 3.6 12.3333 1.26667 8.28667 5.31467C4.68334 8.918 3.33334 10.2667 3.592 11.358C3.6977 11.7675 4.01684 12.0877 4.426 12.1947C4.70254 12.281 4.99099 12.3231 5.28067 12.3193C6.798 12.3193 8.846 11.3553 10.3473 9.85267C10.9062 9.22329 11.7434 8.91609 12.5767 9.03467C12.7173 9.07473 12.8405 9.16061 12.9267 9.27867C12.521 9.60736 12.1322 9.95648 11.762 10.3247C9.44518 12.7812 7.69699 15.7172 6.64134 18.9247C4.41134 18.8493 2.86 19.2227 2.032 20.0507C0.258004 21.8287 -0.64133 26.2073 0.527337 27.376C0.73741 27.6024 1.03182 27.7318 1.34067 27.7333ZM8.05334 18.9067L9.27867 19.3147C8.83324 20.5053 8.49087 21.7321 8.25534 22.9813L6.88867 23.2547C7.13747 21.7715 7.52747 20.3156 8.05334 18.9067ZM18.9627 8.25467C19.6691 8.25931 20.3714 8.3623 21.0493 8.56067L20.7887 9.86667C19.3345 9.39191 17.7525 9.5019 16.378 10.1733L15.894 8.95933C16.8528 8.50224 17.9005 8.26167 18.9627 8.25467ZM30.976 17.684L29.6313 17.9507C28.9004 16.5339 27.956 15.2379 26.8313 14.108L27.7747 13.164C29.0894 14.479 30.1719 16.0073 30.976 17.684ZM31.0393 24.1047L29.828 23.6213C30.1911 22.8737 30.3926 22.058 30.4193 21.2273C30.4299 20.5446 30.3316 19.8645 30.128 19.2127L31.4313 18.9527C31.942 20.6594 31.8023 22.4948 31.0393 24.1047ZM20.6813 30.7107L21.0933 31.9467C19.6853 32.4723 18.2302 32.8623 16.748 33.1113L17.02 31.7487C17.3587 31.682 17.7027 31.61 18.0547 31.5247C18.9455 31.3054 19.8226 31.0336 20.6813 30.7107ZM21.9187 30.2067C23.0487 29.7118 24.1352 29.1228 25.1667 28.446L26.1247 29.4033C24.9254 30.1985 23.6564 30.8831 22.3333 31.4487L21.9187 30.2067ZM17.7393 30.2287C17.5927 30.2647 17.4487 30.2953 17.304 30.3273L17.9907 26.888L22.4053 25.688L24.2053 27.488C22.2122 28.7449 20.0286 29.6705 17.7393 30.2287ZM8.026 31.0287C6.86467 29.4953 6.49267 27.1967 6.71334 24.6447L8.04667 24.378C7.79934 26.704 8.07267 28.7627 8.98 30.0747L8.026 31.0287ZM9.42134 24.104L13.4273 23.304L16.694 26.5707L15.894 30.5813C13.35 30.932 11.3033 30.6073 10.3473 29.648C9.368 28.6753 9.08934 26.5767 9.42134 24.106V24.104ZM15.6033 17.938L20.048 16.726L23.2727 19.95L22.06 24.4L17.616 25.612L14.3913 22.388L15.6033 17.938ZM28.27 18.222L24.2333 19.0287L20.9667 15.762L21.776 11.714C23.1273 12.4803 24.3581 13.4418 25.4287 14.5673C26.5507 15.6405 27.5091 16.8725 28.2733 18.224L28.27 18.222ZM23.3447 24.74L24.5493 20.3247L28.8053 19.4747C28.9944 20.0261 29.0882 20.6057 29.0827 21.1887C29.0433 22.5967 28.3527 23.8987 26.8427 25.4087C26.3659 25.8783 25.8571 26.3142 25.32 26.7133L23.3447 24.74ZM25.8927 13.1593C24.7609 12.0348 23.4634 11.0905 22.0453 10.3593L22.312 9.03C23.9879 9.83078 25.5156 10.9103 26.83 12.2227L25.8927 13.1593ZM20.522 11.1813L19.67 15.448L15.2547 16.652L13.276 14.6667C13.6786 14.1321 14.1174 13.6258 14.5893 13.1513C16.1713 11.5727 17.9873 10.3807 20.5253 11.1833L20.522 11.1813ZM14.312 17.5927L13.108 22.0073L9.66667 22.6947C10.1987 20.2415 11.157 17.9007 12.498 15.7787L14.312 17.5927ZM9.77867 18.074L8.552 17.6667C9.11852 16.3435 9.804 15.0745 10.6 13.8753L11.5453 14.8213C10.8655 15.8542 10.2747 16.943 9.77934 18.076L9.77867 18.074ZM5.75 34.25C5.82375 33.2769 6.18064 32.3467 6.77667 31.574C7.20773 32.2329 7.77348 32.7929 8.43667 33.2173C7.66212 33.8182 6.72761 34.1774 5.75 34.25ZM8.96867 31.9733L9.922 31.0207C11.1445 31.7727 12.5666 32.1356 14 32.0613C14.5419 32.0574 15.0832 32.0231 15.6213 31.9587L15.3547 33.2867C12.8 33.5087 10.5033 33.1333 8.96867 31.9733ZM19 37.026C17.584 38.442 14.292 38.91 13.6253 38.5693C13.9228 38.0547 14.2856 37.5808 14.7047 37.1593C15.2771 36.6104 15.7394 35.9571 16.0667 35.2347C16.1419 34.9991 16.1848 34.7544 16.194 34.5073C17.3958 34.356 18.5838 34.1108 19.7473 33.774C19.762 35.3613 19.5 36.5273 19 37.026ZM28.7333 27.296C28.2582 27.7673 27.7539 28.2081 27.2233 28.616L26.27 27.6627C26.8043 27.2594 27.312 26.822 27.79 26.3533C28.2845 25.8689 28.7376 25.3439 29.1447 24.784L30.3833 25.278C29.9045 26.0059 29.3516 26.6821 28.7333 27.296ZM33.7407 30.774C31.6153 32.8993 29.7587 34.756 29.0473 35.062C28.8287 34.1107 29.5807 32.102 31.09 30.5953C32.0812 29.6961 32.5188 28.3373 32.2387 27.0287C32.1118 26.6181 31.8543 26.2602 31.5053 26.0093C32.4427 24.6571 32.9921 23.0742 33.094 21.432C33.3181 21.5518 33.5221 21.7059 33.6987 21.8887C34.8533 23.0473 37.3473 27.1653 33.7393 30.774H33.7407ZM26.2127 9.74467C26.6887 8.80133 27.1813 7.826 27.884 7.59933C29.6053 7.04533 31.784 6.778 32.5027 7.49733C33.2213 8.21667 32.954 10.3953 32.4007 12.1153C32.174 12.818 31.2007 13.31 30.2573 13.7867L30.144 13.8447C28.9656 12.3721 27.6279 11.0344 26.1553 9.856C26.1747 9.818 26.194 9.78267 26.2127 9.74467ZM12.9707 7.76267C11.6618 7.48259 10.3028 7.92018 9.40334 8.91133C7.918 10.3973 5.946 11.1527 4.94067 10.9473C5.25667 10.2307 7.10934 8.37733 9.22934 6.25733C12.834 2.65267 16.952 5.146 18.1107 6.30467C18.2934 6.48107 18.4473 6.68512 18.5667 6.90933C16.9248 7.01174 15.3422 7.5611 13.99 8.498C13.7394 8.14844 13.3814 7.89026 12.9707 7.76267ZM12.704 11.2687C13.3173 10.6491 13.9934 10.095 14.7213 9.61533L15.2173 10.8593C14.657 11.2654 14.1316 11.7177 13.6467 12.2113C13.1747 12.6856 12.7338 13.1897 12.3267 13.7207L11.384 12.778C11.7917 12.2469 12.2325 11.7421 12.704 11.2667V11.2687ZM2.974 21C3.47934 20.4933 4.62334 20.236 6.22134 20.2513C5.88593 21.4149 5.64252 22.603 5.49334 23.8047C5.24674 23.8145 5.00257 23.8573 4.76734 23.932C4.04457 24.2591 3.39088 24.7212 2.84134 25.2933C2.42015 25.7126 1.94616 26.0752 1.43134 26.372C1.092 25.6967 1.56 22.412 2.974 21Z" />
</g>
<defs>
<clipPath id="clip0">
<path d="M0 0H40V40H0V0Z" fill="white"/>
</clipPath>
</defs>
</svg>
